…
``` r
onlyInNect = x_nectar_tb_sig %>% 
  filter(! pathway_hsa %in% x_nonnectar_tb_sig$pathway_hsa ) 
print(onlyInNect)
```

    ## # A tibble: 68 × 5
    ##    pathway_hsa   value     p_val description_hsa                         total…¹
    ##    <chr>         <int>     <dbl> <chr>                                     <int>
    ##  1 path:hsa00051   694 0.00695   Fructose and mannose metabolism             957
    ##  2 path:hsa00052   956 0.00957   Galactose metabolism                        777
    ##  3 path:hsa00071  3795 0.0380    Fatty acid degradation                      525
    ##  4 path:hsa00120  1312 0.0131    Primary bile acid biosynthesis              192
    ##  5 path:hsa00220   201 0.00202   Arginine biosynthesis                       254
    ##  6 path:hsa00260  2681 0.0268    Glycine, serine and threonine metaboli…     898
    ##  7 path:hsa00330     1 0.0000200 Arginine and proline metabolism             972
    ##  8 path:hsa00340   529 0.00530   Histidine metabolism                        623
    ##  9 path:hsa00380    38 0.000390  Tryptophan metabolism                      1075
    ## 10 path:hsa00400   725 0.00726   Phenylalanine, tyrosine and tryptophan…      43
    ## # … with 58 more rows, and abbreviated variable name ¹​total_cnees
